GEN,name,office,occupation_status,occupation_type,state,location,start_year,end_year,section,division,department,source_category,record_year,input_file,original_record,concurrent?,confirmed?,okay?
GEN.000141,Thomas Anderson,U.S. Attorney,Supervisory,Legal,MS,,1813,1816,US Attorneys,District Court,Judiciary,2 SEJ,1813,CivilOfficials2023.02.01.csv,"{""OK?"": """", ""CONCURRENT?"": """", ""Source information"": """", ""RowNumber"": ""38047"", ""Data Set"": """", ""id"": """", ""GovernmentEmployeeNumber"": ""GEN.000141"", ""Source ID"": ""1813.2.400"", ""SourceCategory"": ""SEJ"", ""Volume"": ""2"", ""Page"": ""400"", ""Image"": """", ""Record Year"": ""1813"", ""Person Information"": """", ""Full Name"": ""Thomas Anderson"", ""Title"": """", ""First Name"": ""Thomas"", ""Middle Name"": ""D"", ""Last Name"": ""Anderson"", ""Suffix"": """", ""Individual Name"": ""Thomas D. Anderson "", ""Individual Title"": """", ""Individual First"": ""Thomas"", ""Individual Middle"": ""D"", ""Individual Last"": ""Anderson"", ""Individual Suffix"": """", ""Birth Year"": """", ""Death Year"": """", ""Birth Locality"": """", ""Birth State"": """", ""Birth Country"": """", ""Birth Sector"": """", ""Birth Polity"": """", ""Locality of Residence"": """", ""State of Residence"": """", ""Country of Residence"": """", ""Sector of Residence"": """", ""Polity of Residence"": """", ""Nationality"": """", ""Polity of Nationality"": """", ""Member of Congress"": """", ""Appointment Information"": """", ""WHO IS IT?"": ""Thomas Anderson1813_400"", ""Office"": ""U.S. Attorney"", ""Section"": ""US Attorneys"", ""Division"": ""District Court"", ""Department"": ""Judiciary"", ""Occupation Type"": ""Legal"", ""Occupation Status"": ""Supervisory"", ""Vessel"": """", ""Geocoding Location"": """", ""Building"": """", ""Sub-Locality"": """", ""Locality"": """", ""State Section"": """", ""State"": ""MS"", ""Region"": """", ""Native Nation"": """", ""Country"": ""US"", ""Sector"": ""North America"", ""Polity"": ""Independent Polity"", ""Combined Information"": ""GEN.000141#U.S. Attorney#US Attorneys#District Court#Judiciary"", ""Combined Start Year"": """", ""Combined End Year"": """", ""Start Year"": ""1813"", ""Start Month"": ""29"", ""Start Day"": ""7"", ""End Year"": ""1816"", ""End Month"": """", ""End Day"": """", ""Departure Reason"": ""New (DK)"", ""Start/Stop Same"": ""NO"", ""Earliest Year"": """", ""Earliest Month"": """", ""Earliest Day"": """", ""Latest Year"": """", ""Latest Month"": """", ""Latest Day"": """", ""About the Office"": """", ""YearPostCreated"": """", ""MonthPostCreated"": """", ""DayPostCreated"": """", ""Creation Modifier"": """", ""YearPostTerminated"": """", ""MonthPostTerminated"": """", ""DayPostTerminated"": """", ""Termination Modifier"": """", ""Compensation"": """", ""Start Salary"": """", ""End Salary"": """", ""Salary"": """", ""Pay Period"": """", ""Rations"": """", ""Per Diem"": """", ""Emoluments"": """", ""Nett Compensation"": """", ""Expenses"": """", ""Commissions"": """", ""Appointment Information.1"": """", ""president"": ""James Madison"", ""nom_month"": ""7"", ""nom_day"": ""27"", ""nom_year"": ""1813"", ""confirm_month"": ""7"", ""confirm_day"": ""29"", ""confirm_year"": ""1813"", ""confirm_votes_for"": ""0"", ""confirm_votes_against"": ""0"", ""Confirmed (Y/N)"": ""Y"", ""commission_month"": ""0"", ""commission_day"": ""0"", ""commission_year"": ""0"", ""termination_month"": ""0"", ""termination_day"": ""0"", ""termination_year"": ""1816"", ""appointee_departure_reason"": ""New (DK)"", ""DKCONFIRMED"": ""YES"", ""predecessor_departure_reason"": ""Unknown"", ""Additional Information"": "" 1834 (DK) "", ""Notes"": """", ""Unnamed: 120"": """", ""Unnamed: 121"": """", ""Unnamed: 122"": """", ""Unnamed: 123"": """", ""Unnamed: 124"": """", ""OfficeRECORD"": ""Consul"", ""SectionRECORD"": ""Consular Service"", ""DivisionRECORD"": ""Foreign Service"", ""RECORD"": ""State""}",,Y,
GEN.000141,Thomas Anderson,U.S. Attorney,Supervisory,Legal,MS,,1813,1814,US Attorneys,District Court,Judiciary,3 US Attorneys,1813,CivilOfficials2023.02.01.csv,"{""OK?"": """", ""CONCURRENT?"": """", ""Source information"": """", ""RowNumber"": ""478"", ""Data Set"": """", ""id"": """", ""GovernmentEmployeeNumber"": ""GEN.000141"", ""Source ID"": """", ""SourceCategory"": ""US Attorneys"", ""Volume"": """", ""Page"": """", ""Image"": """", ""Record Year"": """", ""Person Information"": """", ""Full Name"": """", ""Title"": """", ""First Name"": ""Thomas"", ""Middle Name"": ""D"", ""Last Name"": ""Anderson"", ""Suffix"": """", ""Individual Name"": """", ""Individual Title"": """", ""Individual First"": """", ""Individual Middle"": """", ""Individual Last"": """", ""Individual Suffix"": """", ""Birth Year"": """", ""Death Year"": """", ""Birth Locality"": """", ""Birth State"": """", ""Birth Country"": """", ""Birth Sector"": """", ""Birth Polity"": """", ""Locality of Residence"": """", ""State of Residence"": """", ""Country of Residence"": """", ""Sector of Residence"": """", ""Polity of Residence"": """", ""Nationality"": """", ""Polity of Nationality"": """", ""Member of Congress"": """", ""Appointment Information"": """", ""WHO IS IT?"": """", ""Office"": ""U.S. Attorney"", ""Section"": ""US Attorneys"", ""Division"": ""District Court"", ""Department"": ""Judiciary"", ""Occupation Type"": ""Legal"", ""Occupation Status"": ""Supervisory"", ""Vessel"": """", ""Geocoding Location"": """", ""Building"": """", ""Sub-Locality"": """", ""Locality"": """", ""State Section"": """", ""State"": ""MS"", ""Region"": """", ""Native Nation"": """", ""Country"": ""US"", ""Sector"": ""North America"", ""Polity"": ""Independent Polity"", ""Combined Information"": ""GEN.000141#U.S. Attorney#US Attorneys#District Court#Judiciary"", ""Combined Start Year"": """", ""Combined End Year"": """", ""Start Year"": ""1813"", ""Start Month"": """", ""Start Day"": """", ""End Year"": ""1814"", ""End Month"": """", ""End Day"": """", ""Departure Reason"": ""Resigned"", ""Start/Stop Same"": ""NO"", ""Earliest Year"": """", ""Earliest Month"": """", ""Earliest Day"": """", ""Latest Year"": """", ""Latest Month"": """", ""Latest Day"": """", ""About the Office"": """", ""YearPostCreated"": """", ""MonthPostCreated"": """", ""DayPostCreated"": """", ""Creation Modifier"": """", ""YearPostTerminated"": """", ""MonthPostTerminated"": """", ""DayPostTerminated"": """", ""Termination Modifier"": """", ""Compensation"": """", ""Start Salary"": """", ""End Salary"": """", ""Salary"": """", ""Pay Period"": """", ""Rations"": """", ""Per Diem"": """", ""Emoluments"": """", ""Nett Compensation"": """", ""Expenses"": """", ""Commissions"": """", ""Appointment Information.1"": """", ""president"": """", ""nom_month"": """", ""nom_day"": """", ""nom_year"": """", ""confirm_month"": """", ""confirm_day"": """", ""confirm_year"": """", ""confirm_votes_for"": """", ""confirm_votes_against"": """", ""Confirmed (Y/N)"": """", ""commission_month"": """", ""commission_day"": """", ""commission_year"": """", ""termination_month"": """", ""termination_day"": """", ""termination_year"": """", ""appointee_departure_reason"": """", ""DKCONFIRMED"": ""NO"", ""predecessor_departure_reason"": ""Unknown"", ""Additional Information"": "" 1831 (DK) "", ""Notes"": """", ""Unnamed: 120"": """", ""Unnamed: 121"": """", ""Unnamed: 122"": """", ""Unnamed: 123"": """", ""Unnamed: 124"": """", ""OfficeRECORD"": ""Consul"", ""SectionRECORD"": ""Consular Service"", ""DivisionRECORD"": ""Foreign Service"", ""RECORD"": ""State""}",,,
