[
    {
        "GEN": "GEN.001141",
        "name": "Aaron Burr",
        "okay?": "",
        "jobs": [
            {
                "office": "Vice President of the United States, Leadership",
                "print_place": "",
                "start_date": "1801",
                "end_date": "1805",
                "end_date_message": "",
                "job_details": [
                    {
                        "record_year": "1801.0",
                        "start_year": "1801.0",
                        "end_year": "1805",
                        "office": "Vice President of the United States",
                        "occupation_type": "Vice President of the United States",
                        "occupation_status": "Leadership",
                        "location": "Capital",
                        "state": "Capital",
                        "confirmed?": "",
                        "source_category": "1 Cabinet Members"
                    }
                ]
            },
            {
                "office": "Vice President of the United States, Leadership",
                "print_place": "Tunis",
                "start_date": "1802",
                "end_date": "1834",
                "end_date_message": "end_date inferred from register",
                "job_details": [
                    {
                        "record_year": "1802.0",
                        "start_year": "",
                        "end_year": "",
                        "office": "Vice President of the United States",
                        "occupation_type": "Vice President of the United States",
                        "occupation_status": "Leadership",
                        "location": "Tunis",
                        "state": "",
                        "confirmed?": "",
                        "source_category": "2 Registers"
                    }
                ]
            }
        ],
        "terms_in_office": "1801-1834",
        "n_terms_in_office": 1,
        "years_in_office": 34
    },
    {
        "GEN": "GEN.004378",
        "name": "Thomas Jefferson",
        "okay?": "",
        "jobs": [
            {
                "office": "Secretary of State, Leadership",
                "print_place": "",
                "start_date": "1789",
                "end_date": "1793",
                "end_date_message": "",
                "job_details": [
                    {
                        "record_year": "1789.0",
                        "start_year": "1789.0",
                        "end_year": "1793",
                        "office": "Secretary of State",
                        "occupation_type": "Secretary of State",
                        "occupation_status": "Leadership",
                        "location": "Capital",
                        "state": "Capital",
                        "confirmed?": "Y",
                        "source_category": "2 SEJ"
                    },
                    {
                        "record_year": "1790.0",
                        "start_year": "1790.0",
                        "end_year": "1793",
                        "office": "Secretary of State",
                        "occupation_type": "Secretary of State",
                        "occupation_status": "Leadership",
                        "location": "Capital",
                        "state": "Capital",
                        "confirmed?": "",
                        "source_category": "1 Cabinet Members"
                    },
                    {
                        "record_year": "1792.0",
                        "start_year": "",
                        "end_year": "",
                        "office": "Secretary of State",
                        "occupation_type": "Secretary of State",
                        "occupation_status": "Leadership",
                        "location": "Capital",
                        "state": "Capital",
                        "confirmed?": "",
                        "source_category": "2 Registers"
                    }
                ]
            },
            {
                "office": "Vice President of the United States, Leadership",
                "print_place": "",
                "start_date": "1797",
                "end_date": "1801",
                "end_date_message": "",
                "job_details": [
                    {
                        "record_year": "1797.0",
                        "start_year": "1797.0",
                        "end_year": "1801",
                        "office": "Vice President of the United States",
                        "occupation_type": "Vice President of the United States",
                        "occupation_status": "Leadership",
                        "location": "Capital",
                        "state": "Capital",
                        "confirmed?": "",
                        "source_category": "1 Cabinet Members"
                    }
                ]
            },
            {
                "office": "President of the United States, Leadership",
                "print_place": "",
                "start_date": "1801",
                "end_date": "1809",
                "end_date_message": "",
                "job_details": [
                    {
                        "record_year": "1801.0",
                        "start_year": "1801.0",
                        "end_year": "1809",
                        "office": "President of the United States",
                        "occupation_type": "President of the United States",
                        "occupation_status": "Leadership",
                        "location": "Capital",
                        "state": "Capital",
                        "confirmed?": "",
                        "source_category": "1 Cabinet Members"
                    },
                    {
                        "record_year": "1802.0",
                        "start_year": "",
                        "end_year": "",
                        "office": "President of the United States",
                        "occupation_type": "President of the United States",
                        "occupation_status": "Leadership",
                        "location": "Capital",
                        "state": "Capital",
                        "confirmed?": "",
                        "source_category": "2 Registers"
                    }
                ]
            }
        ],
        "terms_in_office": "1789-1793; 1797-1809",
        "n_terms_in_office": 2,
        "years_in_office": 18
    }
]