Locality,State,n
Capital,Capital,1612
New York,NY,1250
Philadelphia,PA,598
Boston,MA,442
Baltimore,MD,358
Charleston,SC,323
,VA,319
New Orleans,LA,249
Savannah,GA,191
Norfolk,VA,186
,NY,181
Portsmouth,NH,181
Portland,ME,176
,NC,175
Providence,RI,168
Newport,RI,167
Salem,MA,160
New London,CT,158
,MA,154
,PA,147
Newburyport,MA,140
Middletown,CT,130
Wilmington,NC,113
,SC,111
New Haven,CT,105
,MD,101
,OH,101
Plymouth,MA,95
Salem and Beverly,MA,93
Bristol,RI,90
Marblehead,MA,89
,LA,83
Nantucket,MA,80
Gloucester,MA,77
,GA,72
Bath,ME,68
Richmond,VA,67
Edenton,NC,66
Washington,NC,66
New Bedford,MA,65
Capital,DC,65
St. Louis,MO,62
Detroit,MI,61
Alexandria,DC,59
Machias,ME,57
Wilmington,DE,57
Perth Amboy,NJ,56
Chillicothe,OH,56
Tappahannock,VA,55
Wiscasset,ME,55
New Bern,NC,55
Bristol and Warren,RI,54
Washington,MS,54
,KY,52
Dighton,MA,52
York,ME,52
Stonington,CT,51
,MS,51
St. Marys,GA,50
Kennebunk,ME,50
Georgetown,DC,48
,CT,48
Delaware Wharves,PA,47
,VT,46
,NJ,46
Barnstable,MA,46
Cincinnati,OH,46
Eastport,ME,46
Sag Harbor,NY,45
Washington,DC,44
,NH,44
Camden,NC,44
,TN,43
,DE,42
North Kingstown,RI,42
Fairfield,CT,41
Mobile,AL,41
Frenchman's Bay,ME,41
Petersburg,VA,40
Brunswick,GA,40
Beaufort,NC,39
Castine,ME,39
Waldoboro,ME,38
Hartford,CT,38
Ocracoke,NC,37
,RI,36
Delaware,PA,35
Boston and Charlestown,MA,35
Lubec,ME,35
East River,VA,34
Beverly,MA,34
Saco,ME,34
Edgartown,MA,33
Marietta,OH,33
City Point,VA,32
Warren,RI,31
Opelousas,LA,31
Plymouth,NC,31
Thomaston,ME,30
East Greenwich,RI,30
Georgetown,SC,29
Great Egg Harbor,NJ,29
Alexandria,VA,29
Huntsville,AL,29
Nottingham,MD,28
Sackets Harbor,NY,28
Pensacola,FL,28
Oswego,NY,28
Penobscot,ME,28
Bridgeton,NJ,28
Snow Hill,MD,28
Ipswich,MA,27
Biddeford,ME,27
Steubenville,OH,27
,FL,27
Hudson,NY,27
Presque Isle,PA,27
Folly Landing,VA,27
Edwardsville,IL,26
Yorktown,VA,26
St. Augustine,FL,26
Albany,NY,26
Little Egg Harbor,NJ,26
Swansboro,NC,26
Kaskaskia,IL,26
Wooster,OH,25
Buffalo,NY,25
Dumfries,VA,25
Pawtuxet,RI,25
Vincennes,IN,25
Cherrystone,VA,25
Bristol,ME,24
Cape Vincent,NY,24
Chester,MD,24
Jeffersonville,IN,24
Zanesville,OH,24
Niagara,NY,23
Shawneetown,IL,23
Alburgh,VT,23
Burlington,NJ,23
Annapolis,MD,23
Newbern,NC,23
Michilimackinac,MI,23
Belfast,ME,23
Yeocomico River,VA,22
Pawcatuck,CT,22
,AL,22
Nanjemoy,MD,22
,MO,22
Hampton,VA,22
Saybrook,CT,22
Carters Creek,VA,21
Norfolk and Portsmouth,VA,21
Tiverton,RI,21
Tallahassee,FL,21
Natchez,MS,21
Oxford,MD,20
Vienna,MD,20
Sunbury,GA,20
Bangor,ME,20
Cahaba,AL,19
Passamaquoddy,ME,19
Beaufort,SC,19
New Brunswick,NJ,19
,ME,19
South Quay,VA,19
Fort Wayne,IN,19
Smith Island,VA,19
Urbanna,VA,18
,IN,18
Bayou St. John,LA,18
Suffolk,VA,18
Bermuda Hundred,VA,18
Elizabeth City,NC,18
Smithfield,VA,18
St. Stephens,AL,18
St. Mary's,MD,18
Port Royal,VA,17
Tuscaloosa,AL,17
Darien,GA,17
"Marblehead, Boston, and Charleston",MA,17
Piqua,OH,16
Windsor,NC,16
Holmes Hole,MA,16
Ogdensburg,NY,16
Louisville,KY,16
** Unknown **,,16
Buffalo Creek,NY,16
"Bath, Hallowell, etc.",ME,15
Scituate,MA,15
St. Marks,FL,15
Chatham,MA,15
Florence,AL,15
Murfreesboro,NC,15
Burlington,VT,15
Champlain,NY,15
Gloucester,NJ,15
Bridgeport,CT,14
Havre de Grace,MD,14
Town Creek,MD,14
Ouachita,LA,14
Cape Hatteras,NC,14
Fredericksburg,VA,14
St. Helena,LA,14
Newbiggin Creek,NC,13
Milford,CT,13
Jackson,MS,13
Derby,VT,13
Little Rock,AR,13
,IL,13
Sandusky,OH,13
Staten Island,NY,13
Bath and Hallowell,ME,13
,AR,13
Genessee,NY,12
West Point,VA,12
Hertford,NC,12
Onondaga,NY,12
Newcastle,ME,12
Lexington,MO,12
,MI,12
Seguin,ME,12
Palestine,IL,12
New Castle,NH,12
Frankfort,ME,12
Union River,ME,12
Baker Island,ME,12
Plattsburgh,NY,12
Sandy Hook,NY,12
Jackson,MO,11
Duxbury,MA,11
Newcastle,DE,11
Nixonton,NC,11
Revenue Boat,ME,11
Cumberland,ME,11
Thatcher Island,MA,11
Franklin,VT,11
Boothbay,ME,10
Crawfordsville,IN,10
Swanton,VT,10
Springfield,IL,10
Franklin,MO,10
Norwalk,CT,10
Key West,FL,10
Currituck Inlet,NC,10
Batesville,AR,10
Tybee Island,GA,10
Cape Cod,MA,10
Winton,NC,10
Montauk,NY,10
Indiantown,NC,10
Indianapolis,IN,10
Wigwam Point,MA,10
Hardwick,GA,10
Middlesex,CT,9
Mount Desert Island,ME,9
Kennebeck,ME,9
Boon Island,ME,9
Miami,OH,9
Warren and Barrington,RI,9
Loudon,VA,9
Delaware,OH,9
Balize,LA,9
Tarpaulin Cove,MA,9
Camden,ME,9
Franklin,PA,9
Franklin Island,ME,9
Essex,MA,9
Fairweather Island,CT,9
Portland and Falmouth,ME,9
Cape Henry,VA,9
Sands Point,NY,9
Washington,NY,8
Windham,VT,8
Worcester,MA,8
Lancaster,PA,8
Lewellensburg,MD,8
York,PA,8
Fort Covington,NY,8
Donaldsonville,LA,8
Friendship,ME,8
Ulster,NY,8
Little Gull Island,NY,8
Trumbull,OH,8
Frank's Island,LA,8
Terre Haute,IN,8
Williamson,TN,8
Grafton,NH,8
Five Mile Point,CT,8
Washington,PA,8
Hunterdon,NJ,8
Warwick,VA,8
Allegany,PA,8
Westmoreland,PA,8
Falmouth,MA,8
Eatons Neck,NY,8
Warren,NC,8
Faulkner Island,CT,8
Easton,MD,8
Westport,MA,8
Harrison,VA,8
Vandalia,IL,8
Guilford,CT,8
Greene,NY,8
Wilkes,GA,8
Hillsborough,NH,8
Petit Manan,ME,8
Delaware River,DE,8
Provincetown,MA,8
Sparta,AL,8
Muskingum,OH,8
Columbia,NY,8
Chenango,NY,8
Northampton,PA,8
North Yarmouth,ME,8
Crawford,PA,8
Bucks,PA,8
Montgomery,VA,8
Ontario,NY,8
Black Rock,NY,8
Middlesex,NJ,8
Scott Coumty,KY,8
Schoharie,NY,8
Otsego,NY,8
Clarks Point lighthouse,MA,8
Berkshire,VT,8
Saratoga,NY,8
Berks,PA,8
Cecil,MD,8
Berkshire,MA,8
Centre,PA,8
Madison,NY,8
Sandwich,MA,8
Dartmouth,MA,8
Cape Poge,MA,8
Salem,NJ,8
Suffolk,MA,8
Palmyra,MO,8
Northumberland,PA,7
Ross,OH,7
Hardwicke,GA,7
Rutherford,NC,7
Greenville,SC,7
Greene,OH,7
Roane,TN,7
Greene,GA,7
Rockingham,VA,7
Norwich,CT,7
Rockingham,NH,7
Rockingham,NC,7
Windsor,VT,7
Richland,SC,7
Orange,NC,7
Race Point,MA,7
Gay Head,MA,7
Queen Ann's,MD,7
Frederick,VA,7
Frederick,MD,7
Point Gammon,MA,7
Franklin,VA,7
Harwich,MA,7
Hingham,MA,7
Hatterass,NC,7
Morris,NJ,7
Monroe,MI,7
Moers,NY,7
St. Andrew's Bay,FL,7
Stafford,VA,7
Lake Champlain,NY,7
Mercer,PA,7
Starke,OH,7
Marietta,GA,7
Lewes,DE,7
Lincoln,MA,7
Lincoln County,KY,7
Madison County,KY,7
Logan County,KY,7
Lynn,MA,7
Phippsburg,ME,7
Montgomery,TN,7
Jefferson,NY,7
Scarborough,ME,7
Morristown,NY,7
Hawkins,TN,7
Henrico,VA,7
Surry,VA,7
Sevier,TN,7
Slade Creek,NC,7
Waterford,CT,7
Smith,TN,7
Washington,VA,7
Somerset,MA,7
Nelson County,KY,7
Somerset,MD,7
Washington,MD,7
Mount Salus,MS,7
Warren,OH,7
Jamestown,RI,7
Lynde Point,CT,7
,,7
Fayette County,KY,7
Augusta,MS,7
Bald Head,NC,7
Baldwin,GA,7
Bedford,PA,7
Chateaugay,NY,7
Colleton,SC,7
Cohasset,MA,7
Block Island,RI,7
,WVA,7
Augusta,VA,7
Bennington,VT,7
Addison,VT,7
Caledonia,VT,7
Campbell,VA,7
Hancock,MA,6
Drummondtown,VA,6
Point Judith,RI,6
Long Island Head,MA,6
Cape Whitehead,ME,6
Skewarkey,NC,6
Cape Lookout,NC,6
Fairhaven,MA,6
Fairfield,OH,6
Highgate,VT,6
Marcus Hook,PA,6
Charlestown,MA,6
Pasquotank River Bridge,NC,6
Libby Island,ME,6
Lewiston,NY,6
Monhegan,ME,6
Orleans,LA,6
Lazaretto,PA,6
Wells,ME,6
Wellfleet,MA,6
Old Point Comfort,VA,6
Nova Iberia,LA,6
Chazy,NY,6
Jersey City,NJ,6
Dunkirk,NY,6
Appalachicola,FL,6
Wareham,MA,6
Harpswell,ME,6
Kingston,MA,6
Calais,ME,6
Tuckerton,NJ,6
Georgetown,MD,6
French Creek,NY,6
Rochester,MA,6
Pultneyville,NY,6
Mason County,KY,6
Fort Niagara,NY,6
Massac,IL,6
Rochester,NY,5
Irasburg,VT,5
Sussex,DE,5
Westchester,NY,5
Nantucket and Sherburne,MA,5
English Turn,LA,5
Oswegatchie,NY,5
Erie,OH,5
Massena,NY,5
Basin Carondelet,LA,5
Oxford,ME,5
Augusta,ME,5
Boston,PA,5
Windmill Point,VT,5
Burnt Island,ME,5
Vandalia,IN,5
Bennetts Creek,NC,5
White Hall,NY,5
Kittery,ME,5
Stratford,CT,5
Suffolk,NY,5
Rye,NH,5
Norfolk,MA,5
Kent,DE,5
Big Sodus,NY,5
Dutchess,NY,5
Billingsgate Island,MA,5
New Point Comfort,VA,5
Bird Island,MA,5
Watch Hill,RI,5
Cleveland,OH,5
Cheshire,NH,5
Danbury,OH,5
St. Simons Island,GA,5
Canada Road,ME,5
Essex,NJ,5
Cape Henlopen,DE,5
,NW OH,5
Plankbridge,NC,5
Montgomery,PA,5
Quoddy Head,ME,5
Pond Island,ME,5
Llewellensburg,MD,5
Hampshire,MA,5
Cape Girardeau,MO,5
Dinwiddie,VA,5
Brooksville,ME,5
Cape May,NJ,5
Hallowell,ME,5
Portland Harbor,NY,5
Portsmouth,ME,5
Accomac,VA,5
Brookville,IN,5
Prince George's,MD,5
Wood Island,ME,5
Middlesex,MA,5
Southwest Pass,LA,5
Litchfield,CT,5
Cumberland,NC,5
Craney Island,VA,5
Rensselaer,NY,5
Caroline,VA,5
Memphremagog,VT,5
Pendleton,VA,5
Bath and Augusta,ME,5
Ten Pound Island,MA,5
Richmond,NY,5
Mecklenburg,NC,5
Mifflin,PA,4
Teche,LA,4
Tonawanda,NY,4
Monomoy Island,ME,4
Bath and Gardiner,ME,4
Madisonville,LA,4
Washington,MA,4
Danville,IL,4
Tombstone,NC,4
Waddington,NY,4
Damariscotta,ME,4
Sutton,VT,4
Magnolia,FL,4
Limestone,KY,4
Cuyahoga,OH,4
King and Queen,VA,4
Marlborough,SC,4
Currituck,NC,4
Cambridgeport,MA,4
Washington,RI,4
Bucksport,ME,4
Petersberg,VA,4
Henderson,NY,4
Fairfield,SC,4
Cape Porpoise,ME,4
King George,VA,4
Port Lawrence,OH,4
Port Penn,DE,4
Windham,CT,4
Groton,CT,4
Brunswick,VA,4
Sault Ste. Marie,MI,4
White Pigeon,MI,4
Quincy,IL,4
Abbeville,SC,4
Sangueno,CT,4
Fleming County,KY,4
Rapides,LA,4
York,VA,4
Fort Gratiot,MI,4
Fort St. John,LA,4
Rockland,NY,4
Salt River,MO,4
Pearlington,MS,4
Edgecomb,ME,4
Old Field Point,NY,4
Jefferson,GA,4
Essex,NY,4
Chester,SC,4
Owl's Head,ME,4
Stewartstown,NH,4
Westerly,RI,4
St. George,ME,4
St. Johns,FL,4
Stamford,CT,3
New Point,VA,3
Sandy Neck,MA,3
Cape Elizabeth,ME,3
Richmond and Manchester,VA,3
Maumee,OH,3
Nobleboro,ME,3
Canton,OH,3
Roanoke Marshes,NC,3
Cape Florida,FL,3
Marshfield,MA,3
Robinston,ME,3
Canton,NY,3
Stony Point,NY,3
Strafford,NH,3
Rowan,NC,3
St. Stephens,LA,3
South Hero,VT,3
Chester,PA,3
Norwalk Island,CT,3
Murfreesboro,TN,3
Throggs neck,NY,3
St. Albans,VT,3
Pittsburgh,PA,3
Charleston lighthouse,SC,3
Pontchartrain,MS,3
Port Elizabeth,NJ,3
Charlestown and Boston,MA,3
Tomoka,FL,3
Cape May,DE,3
Cape Henry lighthouse,VA,3
Urbanna,IL,3
St. Johns River,FL,3
Trout River,NY,3
Cumberland Head,NY,3
Mistake Island,ME,3
Cedar Point,MD,3
Pontotock,MS,3
Charleston,WV,3
Little River,ME,3
Federal Point,NC,3
Luzerne,PA,3
Fort Stoddard,MS,3
Willoughby Spit,VA,3
Whitehead,MA,3
White Island,NH,3
Long Point,MA,3
Eden,ME,3
Eastport and Lubec,ME,3
Herkimer,NY,3
Warwick,RI,3
Jefferson County,KY,3
East Machias,ME,3
Dumfries and Newport,VA,3
Jeffersonville,OH,3
Jersey City,NY,3
Wood Island,MA,3
Lycoming,PA,3
Grand River,OH,3
Mackinac,MI,3
Alexandria,,3
Madrid,NY,3
Deer Isle,ME,3
Dauphin,PA,3
Youngstown,NY,3
Hartford,NC,3
Fayette,PA,3
Jefferson,OH,2
Cape Henlopen light house,NJ,2
Bristol,CT,2
Phippsburg and Georgetown,ME,2
Brookville,OH,2
Cayahoga,OH,2
Blakeley,AL,2
Grosse Ile,MI,2
Chatham,GA,2
Oglethorpe,GA,2
Point De Fer,LA,2
Eatons Neck lighthouse,NY,2
Old Point,VA,2
Jacksonville,FL,2
Jersey,NY,2
Juniper Island,VT,2
Stafford,NH,2
Niagara Falls,NY,2
Greenbrier,VA,2
Choctaw Point,AL,2
Chocchuma,MS,2
Kinderhook,NY,2
Fire Island,NY,2
Fernandina,FL,2
Duplin,NC,2
Big Sandy,NY,2
Jonesburg,ME,2
Nobsque Point,MA,2
Kershaw,SC,2
Steuben,NY,2
Shrewsbury,NJ,2
Chestertown,MD,2
Prince's Bay,NY,2
Fayette,MO,2
Alexandria,NY,2
Hagersburgh,NY,2
Guilford and Branford,CT,2
Bristol,PA,2
Sparta,MI,2
Hogansburg,NY,2
Wheeling,WV,2
Pasquotank,NC,2
Hampton,NH,2
Pass Christian,FL,2
South Kingstown,RI,2
Shell Castle,NC,2
Palestine,OH,2
Fayetteville,AR,2
Hamtramck,MI,2
Hendricks Head,ME,2
Pembroke,ME,2
Sodus Bay,NY,2
Cat Island,FL,2
Smyrna,DE,2
Spring Wells,MI,2
Hamdem and Bangor,ME,2
Guilford and Madison,CT,2
Otter Creek Point,MI,2
Cayuga,NY,2
Allegany,MD,2
Orange,VA,2
Portland,OH,2
Portland,NY,2
Halifax,NC,2
Bois Blanc Island,MI,2
Houlton,ME,2
Hamburg,NY,2
Port Tuckerson,NJ,2
Bucyrus,OH,2
Alexandria County,,2
St. Albans Bay,VT,2
Westville,NY,2
Hallowell and Augusta,ME,2
Petersburgh and Richmond,VA,2
Mantinicus Rock,ME,2
Plumb Island,MA,2
Plumb Island,NY,2
Back River Point Lighthouse,VA,2
Mobile Point,AL,2
,Delaware,2
Cambridge,MA,2
Demopolis,AL,2
Wapakoneta,OH,2
Monhegan Island,ME,2
Galloo Island,NY,2
Dice Head,ME,2
Gardiner,ME,2
Montevallo,AL,2
Montgomery,AL,2
Little Sodus,NY,2
Dog River,AL,2
Gates,NC,2
Montgomery,VT,2
Biddeford and Pepperellborough,ME,2
Montpelier,VT,2
Tiffin,OH,2
Geauga,OH,2
Louisville,NY,2
Mississippi,LA,2
Genesee,MI,2
French Mills,NY,2
Franklin,LA,2
Manchester,MA,2
Manasquan,NJ,2
Barrancas,FL,2
Franklin,AR,2
,Choctaw,2
Salmon River,NY,2
"Machias, West Falls",ME,2
Maysville,KY,2
Vinalhaven,ME,2
Delaware Bay,DE,2
Lyme,CT,2
Miami,FL,2
Cuttyhunk Island,MA,2
Fort Tompkins,NY,2
Wade Point,NC,2
Delaware City,DE,2
Tunis,,2
Milledgeville,GA,2
Craven,NC,2
Dorchester,MA,2
Mount Holly,NJ,2
Lewistown,DE,2
Lazaretto,MD,2
Dumpling Rock,MA,2
Washington,AR,2
New Feliciana,LA,2
Columbus,MS,2
Sandy Hook,NJ,2
Sullivan,ME,2
Natchitoches,LA,2
Ashtabula,OH,2
Tampa Bay,FL,2
Arkansas,AR,2
Cape Fear,NC,2
Lincoln,ME,2
Georgetown,NC,2
River Rouge,MI,2
New Shoreham,RI,2
Mouth of Neuse River,NC,2
Dover,NH,2
La Porte,IN,2
Warren and Barrington,CT,2
Saginaw,MI,1
Sapelo Light House,GA,1
Shell Castle Light Vessel,NC,1
Alburgh and Franklin,VT,1
Adams,MS,1
Shenandoah,VA,1
Abbeville,NC,1
Showhill,MD,1
Wolf Trap Shoals,VA,1
not stationary,NY,1
Calvert,MD,1
5 Fathoms Bank,DE,1
Sapelo Island,GA,1
Sand Key,FL,1
Buckingham,VA,1
Sandy Bay Gloucester,MA,1
York and Biddeford,ME,1
Sandusky,PA,1
Sevanton,VT,1
Brookville,,1
Buffalo Town,NY,1
,MS/AL,1
Buncombe,NC,1
Wythe,VA,1
Sandy Creek,NY,1
Windmill Point,VA,1
Albemarle,VA,1
Worcester,MD,1
Shawnee,IL,1
Browns Head,ME,1
Seneca,NY,1
Bud Island,MA,1
Addison,MA,1
18 Mile Creek,NY,1
Winter Harbour,ME,1
West Chataugay,NY,1
Situate,MA,1
Bedford,VA,1
Thomas' Point,MD,1
"Bath, etc.",ME,1
Bay and River,DE,1
Tennawander,NY,1
Beacon Island,NC,1
Beacons on Wolf Island,GA,1
Beaver,PA,1
Talbot,MD,1
Assateague,VA,1
Wilkes,NC,1
Sussex,NJ,1
Belfast etc.,ME,1
Surry,NC,1
Washington,CT,1
Summer,TN,1
Sullivan,TN,1
Washington,ME,1
Ann Arundell,MD,1
Warren County,KY,1
Augusta,MO,1
Tibbit's Point,NY,1
Tioga,NY,1
Upper Middle Shoal,DE,1
Uniontown,ME,1
Barrington,RI,1
Union,NC,1
Vandalia,OH,1
Venice,OH,1
Barton,VT,1
Basin Canal,LA,1
Turtle Island,OH,1
Turkey Point,MD,1
Wake,NC,1
Tuckanuck Shoal,MA,1
Bath Gardiner and Bow,ME,1
Trenton,NJ,1
Bath Hallowell and Augusta,ME,1
Warren,GA,1
Tolland,CT,1
Stuyvesant,NY,1
Anderson,TN,1
Amherst,VA,1
Allegany,DE,1
Bombay Hook,DE,1
Whales Back,NH,1
Springville,IL,1
"Boothbay, Wiscasset",ME,1
Southampton,VA,1
Boston Bay,MA,1
White Island,ME,1
Somerset,PA,1
Boston and Dorchester,MA,1
"Boston, Portland Head, Plumb Island, Thatcher's Island, Boston harbor, Plymouth and Nantucket",MA,1
Whiteheads Point,FL,1
Sodus Point,NY,1
Bourbon County,KY,1
Brandywine Shoal,DE,1
Smith's Island,MD,1
Branford,CT,1
Brant Island Shoal,NC,1
Westmoreland,VA,1
Westfield,VT,1
Straddle Gap,NC,1
St. Clair,MI,1
Big Salmon,NY,1
Stockholm,NY,1
Amelia Island,GA,1
Steuben,ME,1
Washington County,KY,1
Washington County,MS,1
Washington's Point,VA,1
Amelia Island,FL,1
Black River,MI,1
Black Rock,CT,1
Blanchard's Fork,OH,1
St. Joseph's,MI,1
St. Joseph River,MI,1
Barrier Islands,NC,1
West Chop,MA,1
Bodkin Island,MD,1
West Florida,FL,1
Troy,VT,1
Franklin,OH,1
Sachemshead,CT,1
King William,VA,1
Madison,MS,1
Lynn,NY,1
Delaware,DE,1
Lunenburg,VA,1
Lubec and Eastport,ME,1
Lower Sandusky,OH,1
Low. Har. N. P.,NH,1
Louisa,VA,1
Longsboat,NC,1
Long Island,NY,1
Loftus Heights,MS,1
Disbury,MA,1
Lisbon and Barnhart's Island,NY,1
Lincoln on the Houlton Road,ME,1
Liberty,GA,1
Druxbury,MA,1
Dry Tortugas,FL,1
Leonard Town,MD,1
Le Ray,NY,1
Lawrence,NC,1
Lancaster,NH,1
Lake Pontchartrain,LA,1
"Lake Ontario, Genesee River",NY,1
Lake Champlain,VT,1
La Motte,VT,1
La Fourche,LA,1
Knox County,TN,1
Daviess County,KY,1
Madison,OH,1
Mahon's Ditch,DE,1
Mispillion Creek,DE,1
Morgan's Point,CT,1
Moore,NC,1
Montgomery County,KY,1
Culpepper,VA,1
Montgomery,OH,1
Cumberland,NJ,1
Cumberland,PA,1
Monongalia,WV,1
Monmouth River,NJ,1
Cumberland,RI,1
Mocus,NY,1
"Mobile, Blakeley",AL,1
Miller's Bay,NY,1
Maidstone,VT,1
Cumberland Island,GA,1
Cutler,ME,1
Cuttehunk,MA,1
Maury,TN,1
Matthew's Mouse,VA,1
Massac,OH,1
Mason,VA,1
Martinicus Rock,ME,1
Marshalls Point,ME,1
Danville,VT,1
Darien,MA,1
Mantauk Point,NY,1
Kittery Point,ME,1
Key Biscayne,FL,1
Cove Point,MD,1
Dutch Island,RI,1
Hampden and Seabrook,ME,1
Hamilton,OH,1
Guildhall,VT,1
Grindstone Island,NY,1
Grenadier Island,NY,1
Federicksburg,VA,1
Feliciana,LA,1
Greene,NC,1
Fire Island Inlet,NY,1
Grand Isle,VT,1
Five Fathom Bank,DE,1
Goat Island,RI,1
Gloucester S. Bay,MA,1
Flat Rock,MI,1
Giant's Neck,CT,1
Gerrard County,KY,1
Georgetown lighthouse,SC,1
Flewellingsburg,MD,1
Georgetown,ME,1
Floating Light Tuckanuck Shoals,MA,1
Genessee River,NY,1
Fort Adams,MS,1
Gaut Island,ME,1
Gallia,OH,1
Four Mile Point,NY,1
Frederick,DE,1
"Frankfort, Hamdem, and Bangor",ME,1
Hampton and Seabrook,NH,1
Fauquier,VA,1
Hartford,VT,1
Edgefield,SC,1
East Greenwich,CT,1
Junction of Lakes Huron and Michigan,MI,1
Jonesboro,MA,1
Jessamine County,KY,1
Eddyville,KY,1
Isle Lamott,VT,1
Iredell,NC,1
Edenton and Ocracoke,NC,1
Edgecomb,NC,1
Indian Key,FL,1
Huron,OH,1
Huntsville,OH,1
Huntingdon,PA,1
Fall River,MA,1
Howard County,MO,1
Horse Island,NY,1
Hooper's Straits,MD,1
Erie,PA,1
Hog Island,VT,1
Hinesburg,VT,1
Hillery,NH,1
Highlands on Neversink,NY,1
Highgate and Swanton,VT,1
Heverhill,NH,1
Fair Port,OH,1
Fairfield,VT,1
Creat Captain's Island,CT,1
Mouth Salmon River,NY,1
Rutland,VT,1
Palestine,IN,1
Poplar Point,RI,1
Pool's Island,MD,1
Point Lookout,MD,1
"Point Judith, Jamestown, South Kingstown",RI,1
Cape St. Vincent,,1
Plum Island,MA,1
Captains Island,CT,1
Carisfort Reef,FL,1
Pickaway,OH,1
Carlton Island,NY,1
Carondelet,LA,1
Petersburg and Richmond,VA,1
Caswell,NC,1
Permaquid Point,ME,1
Penobscot Bay,ME,1
Pemgeteugue,VA,1
Pemaquid Point,ME,1
Pearl River,MS,1
Pawcatuck River,CT,1
"Champlain Lowe Village, Clinton County",NY,1
Patuxent,MD,1
"Champlain, Upper Village",NY,1
Pasquotank River,NC,1
Pamptico Sound,NC,1
Pamptico Point,NC,1
Pamp Point,NC,1
Palmyra,TN,1
Port Clinton,OH,1
Port Portland,OH,1
Portage,OH,1
Reedy Island,DE,1
Canaan,VT,1
Rumford,ME,1
Royal Shoal,NC,1
Rouse Point,NY,1
Canal Carondelet,LA,1
Canal Cavonde,LA,1
Rockaway,NY,1
River Raisin,MI,1
River Clinton,MI,1
Ribbits Point,NY,1
Cape Fear River,NC,1
Rehoboth,MA,1
Rappahannock,VA,1
"Portland, Huron",OH,1
Randolph,VT,1
Raleigh,NC,1
Racoon Key,SC,1
Quarantine Island,MA,1
Putnam,GA,1
Pulaski County,KY,1
Cape Henlopen,NJ,1
Prospect,ME,1
Prince George's,DE,1
Presque Beacon,PA,1
Potsdam,NY,1
"Portsmouth, mouth of Piscataqua river",NH,1
Charles City,VA,1
Charleston,NC,1
Mouth St. Joseph's River,MI,1
Pairfield,OH,1
Christian County,KY,1
Clark,GA,1
"New York, Sandy Hook",NY,1
Clay Island,MD,1
New Point Lighthouse,VA,1
Clinton,MI,1
New Kent,VA,1
Clinton,NY,1
New Castle,MA,1
New Castle,DE,1
Colebrook,NH,1
New Brunswick,GA,1
Columbiana,OH,1
Neversink,NY,1
Near Sandusky,OH,1
Nayat Point,RI,1
Conanicut Island,RI,1
Narrows of Potomac,VA,1
Narraguagus,ME,1
Concord Point,MD,1
Nansemond,VA,1
Conneaut,OH,1
Constantinople,,1
Cottreville,MI,1
Mover,NY,1
Mouth of Huron,OH,1
Mouth of 18 Mile Creek,NY,1
Chowan,NC,1
Chittenden,VT,1
Newport; Connanicut Island,RI,1
Chaumont,NY,1
Franklin,NC,1
Outer Thunder Bay Island,MI,1
Charlestown,MS,1
Orangetown,ME,1
Orange,NY,1
Charlotte,VA,1
Charlotte Hard,FL,1
On Turnpike,NY,1
On Canal at Rochester,NY,1
Old Point Lighthouse,VA,1
Ogunquit,ME,1
Off Sandy Hook,NY,1
Nottingham,VA,1
Chippeway Bay,NY,1
Not Stationary and only during the navigation,NY,1
Chesapeake,MD,1
Northumberland,NY,1
Northeast Racoonkey,SC,1
Chester,VA,1
North Point,MD,1
Chester Town,MD,1
North Island,SC,1
"Norfolk, Cape Henry, Virginia",VA,1
Chicago,IL,1
Chilmack,MA,1
Niagara District,NY,1
on the canal at Rochester,NY,1
